{
    "photos": {
        "page": 1,
        "pages": 3199,
        "perpage": 15,
        "total": "319856",
        "photo": [
                  {
                      "id": "48852127256",
                      "owner": "16105638@N00",
                      "secret": "1da8ae6196",
                      "server": "65535",
                      "farm": 66,
                      "title": "St Giles, Tonge, Kent",
                      "ispublic": 1,
                      "isfriend": 0,
                      "isfamily": 0,
                      "url_m": "https://live.staticflickr.com/65535/48852127256_1da8ae6196.jpg"
                  },
                  {
                      "id": "48851770648",
                      "owner": "16105638@N00",
                      "secret": "d99a822bd5",
                      "server": "65535",
                      "farm": 66,
                      "title": "St Giles, Tonge, Kent",
                      "ispublic": 1,
                      "isfriend": 0,
                      "isfamily": 0,
                      "url_m": "https://live.staticflickr.com/65535/48851770648_d99a822bd5.jpg"
                  }, {
                      "id": "48851770543",
                      "owner": "16105638@N00",
                      "secret": "a2e80dc75a",
                      "server": "65535",
                      "farm": 66,
                      "title": "St Giles, Tonge, Kent",
                      "ispublic": 1,
                      "isfriend": 0,
                      "isfamily": 0,
                      "url_m": "https://live.staticflickr.com/65535/48851770543_a2e80dc75a.jpg"
                  }, {
                      "id": "48852126946",
                      "owner": "16105638@N00",
                      "secret": "aec55a6b28",
                      "server": "65535",
                      "farm": 66,
                      "title": "St Giles, Tonge, Kent",
                      "ispublic": 1,
                      "isfriend": 0,
                      "isfamily": 0,
                      "url_m": "https://live.staticflickr.com/65535/48852126946_aec55a6b28.jpg"
                  }, {
                      "id": "48852314452",
                      "owner": "16105638@N00",
                      "secret": "abde4955bd",
                      "server": "65535",
                      "farm": 66,
                      "title": "St Giles, Tonge, Kent",
                      "ispublic": 1,
                      "isfriend": 0,
                      "isfamily": 0,
                      "url_m": "https://live.staticflickr.com/65535/48852314452_abde4955bd.jpg"
                  }, {
                      "id": "48852127256",
                      "owner": "16105638@N00",
                      "secret": "1da8ae6196",
                      "server": "65535",
                      "farm": 66,
                      "title": "St Giles, Tonge, Kent",
                      "ispublic": 1,
                      "isfriend": 0,
                      "isfamily": 0,
                      "url_m": "https://live.staticflickr.com/65535/48852127256_1da8ae6196.jpg"
                  },
                  {
                      "id": "48851770648",
                      "owner": "16105638@N00",
                      "secret": "d99a822bd5",
                      "server": "65535",
                      "farm": 66,
                      "title": "St Giles, Tonge, Kent",
                      "ispublic": 1,
                      "isfriend": 0,
                      "isfamily": 0,
                      "url_m": "https://live.staticflickr.com/65535/48851770648_d99a822bd5.jpg"
                  }, {
                      "id": "48851770543",
                      "owner": "16105638@N00",
                      "secret": "a2e80dc75a",
                      "server": "65535",
                      "farm": 66,
                      "title": "St Giles, Tonge, Kent",
                      "ispublic": 1,
                      "isfriend": 0,
                      "isfamily": 0,
                      "url_m": "https://live.staticflickr.com/65535/48851770543_a2e80dc75a.jpg"
                  }, {
                      "id": "48852126946",
                      "owner": "16105638@N00",
                      "secret": "aec55a6b28",
                      "server": "65535",
                      "farm": 66,
                      "title": "St Giles, Tonge, Kent",
                      "ispublic": 1,
                      "isfriend": 0,
                      "isfamily": 0,
                      "url_m": "https://live.staticflickr.com/65535/48852126946_aec55a6b28.jpg"
                  }, {
                      "id": "48852314452",
                      "owner": "16105638@N00",
                      "secret": "abde4955bd",
                      "server": "65535",
                      "farm": 66,
                      "title": "St Giles, Tonge, Kent",
                      "ispublic": 1,
                      "isfriend": 0,
                      "isfamily": 0,
                      "url_m": "https://live.staticflickr.com/65535/48852314452_abde4955bd.jpg"
                  }, {
                      "id": "48852127256",
                      "owner": "16105638@N00",
                      "secret": "1da8ae6196",
                      "server": "65535",
                      "farm": 66,
                      "title": "St Giles, Tonge, Kent",
                      "ispublic": 1,
                      "isfriend": 0,
                      "isfamily": 0,
                      "url_m": "https://live.staticflickr.com/65535/48852127256_1da8ae6196.jpg"
                  },
                  {
                      "id": "48851770648",
                      "owner": "16105638@N00",
                      "secret": "d99a822bd5",
                      "server": "65535",
                      "farm": 66,
                      "title": "St Giles, Tonge, Kent",
                      "ispublic": 1,
                      "isfriend": 0,
                      "isfamily": 0,
                      "url_m": "https://live.staticflickr.com/65535/48851770648_d99a822bd5.jpg"
                  }, {
                      "id": "48851770543",
                      "owner": "16105638@N00",
                      "secret": "a2e80dc75a",
                      "server": "65535",
                      "farm": 66,
                      "title": "St Giles, Tonge, Kent",
                      "ispublic": 1,
                      "isfriend": 0,
                      "isfamily": 0,
                      "url_m": "https://live.staticflickr.com/65535/48851770543_a2e80dc75a.jpg"
                  }, {
                      "id": "48852126946",
                      "owner": "16105638@N00",
                      "secret": "aec55a6b28",
                      "server": "65535",
                      "farm": 66,
                      "title": "St Giles, Tonge, Kent",
                      "ispublic": 1,
                      "isfriend": 0,
                      "isfamily": 0,
                      "url_m": "https://live.staticflickr.com/65535/48852126946_aec55a6b28.jpg"
                  }, {
                      "id": "48852314452",
                      "owner": "16105638@N00",
                      "secret": "abde4955bd",
                      "server": "65535",
                      "farm": 66,
                      "title": "St Giles, Tonge, Kent",
                      "ispublic": 1,
                      "isfriend": 0,
                      "isfamily": 0,
                      "url_m": "https://live.staticflickr.com/65535/48852314452_abde4955bd.jpg"
                  }
                  
                  
                  ]
    },
    "stat": "ok"
}
